%YAML 1.1
%TAG !u! tag:unity3d.com,2011:
--- !u!114 &11400000
MonoBehaviour:
  m_ObjectHideFlags: 0
  m_CorrespondingSourceObject: {fileID: 0}
  m_PrefabInstance: {fileID: 0}
  m_PrefabAsset: {fileID: 0}
  m_GameObject: {fileID: 0}
  m_Enabled: 1
  m_EditorHideFlags: 0
  m_Script: {fileID: 11500000, guid: 88cb9751426bb4a40a368e1f85c7371b, type: 3}
  m_Name: RangeBarracks
  m_EditorClassIdentifier: 
  Levels:
  - PriceUpgrade: 50
    TimeOfCreation: 10
  - PriceUpgrade: 150
    TimeOfCreation: 9
  - PriceUpgrade: 300
    TimeOfCreation: 8
  - PriceUpgrade: 450
    TimeOfCreation: 7
  - PriceUpgrade: 600
    TimeOfCreation: 6
