%YAML 1.1
%TAG !u! tag:unity3d.com,2011:
--- !u!114 &11400000
MonoBehaviour:
  m_ObjectHideFlags: 0
  m_CorrespondingSourceObject: {fileID: 0}
  m_PrefabInstance: {fileID: 0}
  m_PrefabAsset: {fileID: 0}
  m_GameObject: {fileID: 0}
  m_Enabled: 1
  m_EditorHideFlags: 0
  m_Script: {fileID: 11500000, guid: 241313975d0aeac43acd4ab8f4ea4fe9, type: 3}
  m_Name: RangeMinion
  m_EditorClassIdentifier: 
  Characteristics:
    MaxHP: 100
    Armor: 0
    Attack: 5
    AttackSpeed: 1.5
    AttackRange: 10
    Speed: 400
    Gold: 0
    Exp: 0
