%YAML 1.1
%TAG !u! tag:unity3d.com,2011:
--- !u!114 &11400000
MonoBehaviour:
  m_ObjectHideFlags: 0
  m_CorrespondingSourceObject: {fileID: 0}
  m_PrefabInstance: {fileID: 0}
  m_PrefabAsset: {fileID: 0}
  m_GameObject: {fileID: 0}
  m_Enabled: 1
  m_EditorHideFlags: 0
  m_Script: {fileID: 11500000, guid: 1bc1f16a0b22e9845a9650224651eb9a, type: 3}
  m_Name: Meteor
  m_EditorClassIdentifier: 
  Lvl: 0
  Cooldown: 0
  Icon: {fileID: 21300000, guid: 24c2253355789e64fb839b4c1498800c, type: 3}
  SpellLvls:
  - CooldownSec: 10
    Radius: 1
    Damage: 50
    Slowdown: 0
    SlowdownAttack: 0
    TimeActionSec: 0
  - CooldownSec: 5
    Radius: 2
    Damage: 100
    Slowdown: 0
    SlowdownAttack: 0
    TimeActionSec: 0
  - CooldownSec: 2
    Radius: 3
    Damage: 150
    Slowdown: 0
    SlowdownAttack: 0
    TimeActionSec: 0
  SpellEffect: {fileID: 2238446212399704839, guid: f761ac0b6d02fce47babf2561cc35218,
    type: 3}
  CurrentEffect: {fileID: 0}
